{
  "annotations": {
    "list": [
      {
        "builtIn": 1,
        "datasource": "-- Grafana --",
        "enable": true,
        "hide": true,
        "iconColor": "rgba(0, 211, 255, 1)",
        "name": "Annotations & Alerts",
        "type": "dashboard"
      }
    ]
  },
  "editable": true,
  "gnetId": 12019,
  "graphTooltip": 0,
  "id": 8,
  "iteration": 1627760091808,
  "links": [],
  "panels": [
    {
      "datasource": "Loki",
      "gridPos": {
        "h": 25,
        "w": 24,
        "x": 0,
        "y": 0
      },
      "id": 2,
      "maxDataPoints": "",
      "options": {
        "dedupStrategy": "none",
        "enableLogDetails": true,
        "showLabels": false,
        "showTime": true,
        "sortOrder": "Descending",
        "wrapLogMessage": true
      },
      "targets": [
        {
          "expr": "{namespace=\"$namespace\", pod=~\"$pod\"} |~ \"$search\"",
          "refId": "A"
        }
      ],
      "timeFrom": null,
      "timeShift": null,
      "title": "Logs Panel",
      "type": "logs"
    }
  ],
  "schemaVersion": 30,
  "style": "dark",
  "tags": [],
  "templating": {
    "list": [
      {
        "allValue": null,
        "current": {
          "selected": true,
          "text": "jitsi",
          "value": "jitsi"
        },
        "datasource": "Prometheus",
        "definition": "label_values(kube_pod_info, namespace)",
        "description": null,
        "error": null,
        "hide": 0,
        "includeAll": false,
        "label": null,
        "multi": false,
        "name": "namespace",
        "options": [],
        "query": {
          "query": "label_values(kube_pod_info, namespace)",
          "refId": "Prometheus-namespace-Variable-Query"
        },
        "refresh": 1,
        "regex": "",
        "skipUrlSync": false,
        "sort": 0,
        "tagValuesQuery": "",
        "tagsQuery": "",
        "type": "query",
        "useTags": false
      },
      {
        "allValue": null,
        "current": {
          "selected": true,
          "text": "jvb-0",
          "value": "jvb-0"
        },
        "datasource": "Prometheus",
        "definition": "label_values(container_network_receive_bytes_total{namespace=~\"$namespace\"},pod)",
        "description": null,
        "error": null,
        "hide": 0,
        "includeAll": false,
        "label": null,
        "multi": false,
        "name": "pod",
        "options": [],
        "query": {
          "query": "label_values(container_network_receive_bytes_total{namespace=~\"$namespace\"},pod)",
          "refId": "Prometheus-pod-Variable-Query"
        },
        "refresh": 1,
        "regex": "",
        "skipUrlSync": false,
        "sort": 0,
        "tagValuesQuery": "",
        "tagsQuery": "",
        "type": "query",
        "useTags": false
      },
      {
        "current": {
          "selected": false,
          "text": "",
          "value": ""
        },
        "description": null,
        "error": null,
        "hide": 0,
        "label": null,
        "name": "search",
        "options": [
          {
            "selected": true,
            "text": "",
            "value": ""
          }
        ],
        "query": "",
        "skipUrlSync": false,
        "type": "textbox"
      }
    ]
  },
  "time": {
    "from": "now-6h",
    "to": "now"
  },
  "timepicker": {
    "refresh_intervals": [
      "5s",
      "10s",
      "30s",
      "1m",
      "5m",
      "15m",
      "30m",
      "1h",
      "2h",
      "1d"
    ]
  },
  "timezone": "",
  "title": "Loki Dashboard quick search",
  "uid": "loki-quicksearch",
  "version": 505
}
